145 45
-------------------------------------------------------------------455222222222222222222222222222222222222222222222222222222222222222222222222555
-------------------------------------------------------------------455------------------------------------------------------------------------455
-------------------------------------------------------------------456------------------------------------------------------------------------455
-------------------------------------------------------------------456------------------------------------------------------------------------455
-------------------------------------------------------------------456----------------------------------e-------------------------------------455
-------------------------------------------------------------------456------------------------------------------------------------------------455
-------------------------------------------------------------------456------------------------s----------------e------------------------------455
-------------------------------------------------------------------456------------------zxc----------z89-----------78c------------------------455
------------------------------f------------------------------------456------s---zxxxc-----------------1289---K---7823-------------------------455
-------------------------------------------------------------------45vxxc------------------------zxxc---12xxxxxxx23---------------------------455
--------------------------------e----------------------------------456---------------------------------------E--------------------------------455
-----p-----------------------h--h-----------------------------C----456-r---------------------f----------------------------------------d-------455
----------------------------zxxxxc----------------------------s----45vxxxxxxc-----------------------------------------------------------------455
---------r------------------------------------------------e--------456---------zxxc--------------------79---------s---------------------------455
888888888889-------7888889------------zxc--------------g---------zx556----------------s-------h-----zxx23--------------79---------------------455
555555555556-------4555556---------------------------zxxc----------456---e----------------zxxxxxc----------------------12c-----------ggg------455
555555555556---j---4555556-------------------t-j-------------------456C--------------------o----------------zxxc-------------------zxxxxxc----455
55555555555v8888888b55555v9-------e------78888888xc-----------zxxxxb5vxxc-------------79----------s--------------------------789--------------455
555555555555555555555555556--------------45555556------------------456---------e------46------------------------------------z222c-------------455
55555555555555555555555555v89---------788b5555556------------------456----------------459-----------zxxc---------------------------------f----455
55555555555555555555555555556--r-C-j--45555555556------zc----s-----456---s---s-------z222c------------------s-----------s-----------e---------455
5555555555555555555555555555v888888888b5555555556------------------456-------d---zc----------zxxc------------------zc-------------------------455
555555555555555555555555555555555555555555555555v888c--------------456-----------------------------------------79----------zxc---------hC-----455
5555555555555555555555555555555555555555555555555523---------------456--------------------------------g----788856---------------zxc---zxxxc---455
55555555555555555555555555555555555555555555555523----zxxc---------456----------------s--------------zxc---455556T-T-T-T-T-T-T-T-T-T-T-T-T-TT-455
552222222222222222222222222222222222222222555523--------------78888b56------78888889----78888889-----------12222222222222222222222222222222222b55
56-------------------M-B------------------4556---------------7b5555556T-T-T-45555556T-T-4555555v9------------------l---k--;---l----;----o-----455
56----------------------------------------4556-------------78b55555555222222222222222222222222222xc-------------------------------------------455
56----------------------------s-----------4556-------------45555555556-------------o----------------zxxc--------------------------------------455
56---------------zc-----------------------4556----------zxx22222222223-------------e----------------------------------------------------------455
56----------------------------------------122vxxxxxxc--------------------------------------------------------g------h-------h---------------e-455
56------------------s-----zc-------------------G--f------------------------------------------------788888888888888888888888888888889----------455
56-------------------------------------------------------j-----t-----------------------------------422222222222222222222222222222222c----s----455
56-----------s-s-g-------g--g---zc--------------------788888888888888888xxxxc--------zxc-------78xx3--W--------------------------------------zb55
56-------s-------zxxxxxxxxxxc--------s------------hh--455555555555555556-----------------------46---------------------------------------------455
56--zc--------------o--------------------zc--788888888b55555555555555556-------zxc---------789-46------------------------------------s--------455
56-------------------------------------------455555555555555555555555556-------------------123-46--L------------e-------------------------zxc-455
56-----zxxc------------------------zxxc-----7b55555555555555555555555556-----------------------4v8888889----------------------zxxc------------455
56-----------------------------------------7b555555555555555555555555556-----------------------455555556---zxc-----------e--------s-----------455
56-----------zxc----------------zc---------45555555555555555555555555556T-T-T-T-T-T-T-T-T-T-T-T455555556------------79------------------------455
56----------------s---zxc--zc--------------4555555555555555555555555555555555555555555555555555555555556---------s--46----zc----------9------C455
56-----------------------------------------4555555555555555555555555555555555555555555555555555555555556------------46---------------z6-----zxb55
55T-T-T-T-T-T-T-T-T-T-T-T-T-T-T-T-T-T-T-TT-4555555555555555555555555555555555555555555555555555555555556------------12c-----zc---zc---1xc-----455
55555555555555555555555555555555555555555555555555555555555555555555555555555555555555555555555555555556T-T-T-T-T-T-T-T-T-T-T-T-T-T-T-T-T-T-T-455
5555555555555555555555555555555555555555555555555555555555555555555555555555555555555555555555555555555555555555555555555555555555555555555555555